{
  "Comment.nvim": { "branch": "master", "commit": "e30b7f2008e52442154b66f7c519bfd2f1e32acb" },
  "blink.cmp": { "branch": "main", "commit": "e3b7cb4a1094377c3093a021300de123d9fc60d3" },
  "compile-mode.nvim": { "branch": "latest", "commit": "4feef0bd6485218f50563a61140233f16561c786" },
  "diffview.nvim": { "branch": "main", "commit": "4516612fe98ff56ae0415a259ff6361a89419b0a" },
  "friendly-snippets": { "branch": "main", "commit": "efff286dd74c22f731cdec26a70b46e5b203c619" },
  "harpoon": { "branch": "harpoon2", "commit": "a84ab829eaf3678b586609888ef52f7779102263" },
  "lazy.nvim": { "branch": "main", "commit": "7e6c863bc7563efbdd757a310d17ebc95166cef3" },
  "lazydev.nvim": { "branch": "main", "commit": "8620f82ee3f59ff2187647167b6b47387a13a018" },
  "leaf.nvim": { "branch": "main", "commit": "6cfd0b095a74269c0243c07185e161610d63cac7" },
  "mason-lspconfig.nvim": { "branch": "main", "commit": "c6c686781f9841d855bf1b926e10aa5e19430a38" },
  "mason.nvim": { "branch": "main", "commit": "e2f7f9044ec30067bc11800a9e266664b88cda22" },
  "mini.align": { "branch": "main", "commit": "26111a737494bc39576ad67b52bbc2638ca23553" },
  "mini.icons": { "branch": "main", "commit": "6787321f70d674a481776b7cc2c781fb7002c644" },
  "mini.nvim": { "branch": "main", "commit": "546b9c8bd8ebba594bd18811e54bd3e6f9a662ec" },
  "neogit": { "branch": "master", "commit": "9ea60f79e370d8f4847efc145e53afe4b0613fc1" },
  "noice.nvim": { "branch": "main", "commit": "eaed6cc9c06aa2013b5255349e4f26a6b17ab70f" },
  "nui.nvim": { "branch": "main", "commit": "53e907ffe5eedebdca1cd503b00aa8692068ca46" },
  "nvim-dap": { "branch": "master", "commit": "0e673accbb512e1e191dfb4fecea89cc38c1bcdd" },
  "nvim-dap-cortex-debug": { "branch": "master", "commit": "e09ad083da385fdb74f81fe808f3d2a1593d910d" },
  "nvim-dap-probe-rs": { "branch": "master", "commit": "6df52c49755d78a2d7754c0630dd58694ea39ada" },
  "nvim-dap-ui": { "branch": "master", "commit": "e94d98649dccb6a3884b66aabc2e07beb279e535" },
  "nvim-dap-virtual-text": { "branch": "master", "commit": "df66808cd78b5a97576bbaeee95ed5ca385a9750" },
  "nvim-lspconfig": { "branch": "master", "commit": "a8ef5e6e497b3ebeaaf35b939c07c211563b2e05" },
  "nvim-nio": { "branch": "master", "commit": "a428f309119086dc78dd4b19306d2d67be884eee" },
  "nvim-notify": { "branch": "master", "commit": "bd9cd51f9ef2f6326fc2bc9931d0718c1794e247" },
  "nvim-treesitter": { "branch": "master", "commit": "fae21737be2846a04ae06a41d70b7fc8ad4bf9eb" },
  "nvim-treesitter-context": { "branch": "master", "commit": "2bcf700b59bc92850ca83a1c02e86ba832e0fae0" },
  "nvim-treesitter-textobjects": { "branch": "master", "commit": "ad8f0a472148c3e0ae9851e26a722ee4e29b1595" },
  "nvim-web-devicons": { "branch": "master", "commit": "5740b7382429d20b6ed0bbdb0694185af9507d44" },
  "oil.nvim": { "branch": "master", "commit": "c6a39a69b2df7c10466f150dde0bd23e49c1fba3" },
  "onedark.nvim": { "branch": "master", "commit": "67a74c275d1116d575ab25485d1bfa6b2a9c38a6" },
  "plenary.nvim": { "branch": "master", "commit": "2d9b06177a975543726ce5c73fca176cedbffe9d" },
  "telescope-dap.nvim": { "branch": "master", "commit": "783366bd6c1e7fa0a5c59c07db37f49c805a28df" },
  "telescope-fzf-native.nvim": { "branch": "main", "commit": "dae2eac9d91464448b584c7949a31df8faefec56" },
  "telescope-undo.nvim": { "branch": "main", "commit": "2971cc9f193ec09e0c5de3563f99cbea16b63f10" },
  "telescope.nvim": { "branch": "master", "commit": "2eca9ba22002184ac05eddbe47a7fe2d5a384dfc" },
  "todo-comments.nvim": { "branch": "main", "commit": "ae0a2afb47cf7395dc400e5dc4e05274bf4fb9e0" },
  "trouble.nvim": { "branch": "main", "commit": "46cf952fc115f4c2b98d4e208ed1e2dce08c9bf6" },
  "zen-mode.nvim": { "branch": "main", "commit": "863f150ca321b3dd8aa1a2b69b5f411a220e144f" }
}
